............
----------------------------------------------------------------------
Ran 12 tests in 0.087s

OK
Name             Stmts   Miss Branch BrPart  Cover   Missing
------------------------------------------------------------
Collatz.py          44      0     12      0   100%
TestCollatz.py      55      0      0      0   100%
------------------------------------------------------------
TOTAL               99      0     12      0   100%
